{
  "name": "pf1-alt-sheet",
  "title": "Pathfinder 1e Alt Sheet",
  "description": "Alternative character sheet for Pathfinder 1e based on the 3.5 SRD sheet.",
  "authors": [{"name": "envy"}],
  "url": "https://gitlab.com/zenvy/foundryvtt-pf1-alt-sheet",
  "flags": {},
  "version": "0.8.3",
  "minimumCoreVersion": "9",
  "compatibleCoreVersion": "9",
  "scripts": [],
  "esmodules": [
    "./altsheet.js"
  ],
  "styles": [
    "style.css",
    "chat.css"
  ],
  "languages": [
    {
      "lang": "en",
      "name": "English",
      "path": "lang/en.json"
    },
    {
      "lang": "de",
      "name": "Deutsch (German)",
      "path": "lang/de.json"
    },
    {
      "lang": "it",
      "name": "Italiano (Italian)",
      "path": "lang/it.json"
    },
    {
      "lang": "es",
      "name": "Español (Spanish)",
      "path": "lang/es.json"
    }
  ],
  "packs": [],
  "system": ["pf1"],
  "dependencies": [
    {
      "name": "pf1",
      "type": "system"
    },
    {
      "name": "lib-wrapper",
      "type": "module"
    }
  ],
  "socket": false,
  "manifest": "https://gitlab.com/zenvy/foundryvtt-pf1-alt-sheet/-/raw/master/module.json",
  "download": "https://gitlab.com/zenvy/foundryvtt-pf1-alt-sheet/-/archive/v0.8.3/foundryvtt-pf1-alt-sheet-v0.8.3.zip",
  "protected": false,
  "coreTranslation": false,
  "minimumSystemVersion": "0.81.3",
  "library": false
}
